/* XPM */
static char *mbtrash[] = {
/* width height num_colors chars_per_pixel */
"    20    20        4            1",
/* colors */
". c None",
"# c #000000",
"a c #00fc00",
"b c #c0c0c0",
/* pixels */
"....................",
"....................",
"....................",
"...........##.......",
"..############......",
".#aaaaaaaaa#.##.....",
".#bbbbbbbbb#.#a#....",
".#aaaaaaaaa#.#aa#...",
".#bbbbbbbbb#..#a#...",
".#aaaaaaaaa#..#a#...",
".#bbbbbbbbb#..#a#...",
".#aaaaaaaaa#...##...",
".#bbbbbbbbb#...##...",
"..##########....#...",
"...........#..b.#...",
".............b#b....",
"............b#b#b...",
"...........b#b#b#b..",
"..........b#b#b#b#b.",
"...................."
};
